<?xml version="1.0" encoding="utf-8"?>
<!-- Generator: Adobe Illustrator 16.0.0, SVG Export Plug-In . SVG Version: 6.00 Build 0)  -->
<!DOCTYPE svg PUBLIC "-//W3C//DTD SVG 1.1//EN" "http://www.w3.org/Graphics/SVG/1.1/DTD/svg11.dtd">
<svg version="1.1" xmlns="http://www.w3.org/2000/svg" xmlns:xlink="http://www.w3.org/1999/xlink" x="0px" y="0px"
	 width="810.204px" height="711.597px" viewBox="0 0 810.204 711.597" enable-background="new 0 0 810.204 711.597"
	 xml:space="preserve">
<g id="Capa_2">
</g>
<g id="Capa_1">
	<g>
		<circle fill="#3366FF" cx="394.179" cy="349.85" r="324.334"/>
	</g>
	<g>
		<path fill="none" stroke="#FFFFFF" stroke-width="36.4695" stroke-miterlimit="10" d="M379.009,216.633
			c-23.132,0.002-72.183,0-95.004,0.235c-0.01,4.313,2.323,0.021,0,0c0.239,30.476-1.115,60.282,0.239,90.541
			c2.258,9.031,11.291,15.354,19.872,17.613c29.355,1.354,163.485,1.279,189.302,0c4.961-0.248,18.855-8.395,20.36-18.63
			c1.205-25.691-0.653-51.628-0.004-77.4c0.04-1.609-0.111-10.633-0.108-12.208c-1.55-0.057-73.792,0.104-93.485-0.151"/>
		<path fill="#FFFFFF" d="M322.817,496.9c-2.039,0-11.875,2.117-11.875-16.724c0-18.714-0.345-103.987-0.11-107.462
			c0.44-6.495-1.768-17.748,16.165-17.748c15.944,0,46.216,0.766,46.216,0.766l25.462,34.626l25.571-34.626
			c0,0,46.362-0.754,51.42-0.678c5.058,0.078,12.609-0.396,12.242,15.691c0.331,20.028-0.088,108.348-0.109,110.204
			c-0.037,3.209,1.392,16.125-11.474,16.009C460.924,496.82,324.218,496.9,322.817,496.9z"/>
	</g>
</g>
</svg>
